…
`inner_join()` join only information available in both, left and right, tables.

```{r}
inner_join(left_table, right_table, by = c('dest' = 'faa'))
```

__Notice that `BQN` code is not available in `airports` table__

## Your turn

The following dataset was built using `dplyr` package from `flights` and `airports` datasets:

```r
# A tibble: 2,313 x 12
   month origin dest  distance     n dep_delay_m arr_delay_m dep_arr_delay_cor p_origin p_dest lat_dest lon_dest
   <int> <chr>  <chr>    <dbl> <int>       <dbl>       <dbl>             <dbl>    <dbl>  <dbl>    <dbl>    <dbl>
 1     1 JFK    LAX       2475   937          -2         -11             0.767   0.102   0.808     33.9   -118. 
 2     1 LGA    ATL        762   878          -4          -2             0.833   0.110   0.629     33.6    -84.4
 3     1 JFK    SFO       2586   671          -2         -12             0.784   0.0732  0.755     37.6   -122. 
 4     1 LGA    ORD        733   583          -2          -4             0.911   0.0733  0.459     42.0    -87.9
 5     1 EWR    ORD        719   502          -1          -1             0.964   0.0507  0.396     42.0    -87.9
 6     1 JFK    BOS        187   486          -2         -10             0.893   0.0531  0.390     42.4    -71.0
 7     1 JFK    MCO        944   456          -2         -10             0.820   0.0498  0.388     28.4    -81.3
 8     1 LGA    MIA       1096   451          -3         -10             0.848   0.0567  0.460     25.8    -80.3
 9     1 JFK    FLL       1069   439          -2          -7             0.888   0.0479  0.378     26.1    -80.2
10     1 LGA    CLT        544   437          -3          -2             0.875   0.0550  0.413     35.2    -80.9
# … with 2,303 more rows
```
…
url_new_cases = sprintf("%s/%s/public/data/ecdc/new_cases.csv", repo_url, commit_code)
url_new_deaths = sprintf("%s/%s/public/data/ecdc/new_deaths.csv", repo_url, commit_code)
url_locations = sprintf("%s/%s/public/data/ecdc/locations.csv", repo_url, commit_code)

new_cases = read_csv(url_new_cases)
new_deaths = read_csv(url_new_deaths)
locations = read_csv(url_locations)
```

You will notice that download tables are messy. Using `dplyr` build the following table with information of daily new cases and new death by location.

```r
# A tibble: 50,829 x 5
   name                population date       cases deaths
   <chr>                    <dbl> <date>     <dbl>  <dbl>
 1 Afghanistan           38928341 2020-10-23   116      4
 2 Albania                2877800 2020-10-23   302      3
 3 Algeria               43851043 2020-10-23   266      8
 4 Andorra                  77265 2020-10-23     0      0
 5 Angola                32866268 2020-10-23   289      4
 6 Anguilla                 15002 2020-10-23     0      0
 7 Antigua and Barbuda      97928 2020-10-23     0      0
 8 Argentina             45195777 2020-10-23 16325    438
 9 Armenia                2963234 2020-10-23  2306     10
10 Aruba                   106766 2020-10-23    20      1
# … with 50,819 more rows
```
…
